RStudio - Test1
…
> library(readxl)
> Test1 <- read_excel("Test1.xlsx")
readxl works best with a newer version of the tibble package.
You currently have tibble v1.4.2.
Falling back to column name repair from tibble <= v1.4.2.
Message displays once per session.
Warning message:                                         
In read_fun(path = enc2native(normalizePath(path)), sheet_i = sheet,  :
  Expecting numeric in J24 / R24C10: got a date
> View(Test1)
> model<- nls(RM2 ~ a*b*exp(-c*t),data=test1, start=list(a=120,b=110,c=0.064))
Error in nls(RM2 ~ a * b * exp(-c * t), data = test1, start = list(a = 120,  : 
  object 'test1' not found
> Test1
# A tibble: 59 x 12
   Dates                `RM!`     RM2     RM3 RM4       RM5
   <dttm>               <dbl>   <dbl>   <dbl> <chr>   <dbl>
 1 2019-04-30 00:00:00 190000    1700  1.10e3 Belo  1.00e4
 2 2019-05-08 00:00:00 590000 4100000  2.40e7 1300  1.70e7
 3 2019-05-15 00:00:00 300000  920000  3.10e5 16000  8.20e6
 4 2019-05-22 00:00:00 330000 1300000  1.50e6 2000   6.50e5
 5 2019-05-29 00:00:00 510000  340000  2.50e5 66     1.60e6
 6 2019-06-04 00:00:00     NA      NA NA      NA    NA     
 7 2019-06-05 00:00:00 130000  890000  6.40e4 30     1.20e6
 8 2019-06-12 00:00:00  91000  540000  1.00e5 44     1.90e6
 9 2019-06-19 00:00:00     NA  150000  1.40e4 44    NA     
10 2019-06-20 00:00:00     NA      NA NA      NA     4.70e5
# ... with 49 more rows, and 6 more variables: RM6 <chr>,
#   RM7 <dbl>, RM8 <dbl>, RM9 <dbl>, RM10 <dbl>, t <dbl>
…
> library(readxl)
> test1 <- read_excel("Test1.xlsx")
readxl works best with a newer version of the tibble package.
You currently have tibble v1.4.2.
Falling back to column name repair from tibble <= v1.4.2.
Message displays once per session.
Warning message:                                                                      
In read_fun(path = enc2native(normalizePath(path)), sheet_i = sheet,  :
  Expecting numeric in J24 / R24C10: got a date
> View(test1)
> #mod<-lm(test1$`RM!`~test1$t)
> #summary(mod)
> #attributes(mod)
> test1
# A tibble: 59 x 12
   Dates                `RM!`     RM2     RM3 RM4       RM5 RM6      RM7     RM8     RM9
   <dttm>               <dbl>   <dbl>   <dbl> <chr>   <dbl> <chr>  <dbl>   <dbl>   <dbl>
 1 2019-04-30 00:00:00 190000    1700  1.10e3 Belo  1.00e4 Belo   4000  6.10e2 NA     
 2 2019-05-08 00:00:00 590000 4100000  2.40e7 1300  1.70e7 5900 150000  1.60e7 NA     
 3 2019-05-15 00:00:00 300000  920000  3.10e5 16000  8.20e6 2100 120000  6.80e4 NA     
 4 2019-05-22 00:00:00 330000 1300000  1.50e6 2000   6.50e5 4200  65000  1.40e5 NA     
 5 2019-05-29 00:00:00 510000  340000  2.50e5 66     1.60e6 3500  15000  1.30e5 NA     
 6 2019-06-04 00:00:00     NA      NA NA      NA    NA      NA        NA NA       3.90e4
 7 2019-06-05 00:00:00 130000  890000  6.40e4 30     1.20e6 1800   3300  4.00e4 NA     
 8 2019-06-12 00:00:00  91000  540000  1.00e5 44     1.90e6 1800   3700  1.70e5  2.80e7
 9 2019-06-19 00:00:00     NA  150000  1.40e4 44    NA      NA        NA NA       6.60e5
10 2019-06-20 00:00:00     NA      NA NA      NA     4.70e5 3900    200  1.40e4 NA     
# ... with 49 more rows, and 2 more variables: RM10 <dbl>, t <dbl>
…
> #v=fitModel(RM1~ 25000*exp(-c*t)+c*25000/(c-delta)*(c/(c-delta)*(exp(-delta*t)-exp(-c*t))-delta*t*exp(-c*t))) )
> Modell=makeFun(25000*exp(-c*t)+c*25000/(c-delta)*(c/(c-delta)*(exp(-delta*t)-exp(-c*t))-delta*t*exp(-c*t))~t)
> model2 = nlsfit(RM1~ Modell(t), start = list(c=.2,delta=.1),data=test1)
Error in fun[[model]] : invalid subscript type 'language'
> model2
Error: object 'model2' not found
> coef(model2)
Error in coef(model2) : object 'model2' not found
> View(test1)
> View(Test1)
> model<- nls(RM2 ~ a*b*exp(-c*t),data=Test1, start=list(a=120,b=110,c=0.064))
Error in nlsModel(formula, mf, start, wts) : 
  singular gradient matrix at initial parameter estimates
> test1
# A tibble: 59 x 12
   Dates                `RM!`     RM2     RM3 RM4       RM5 RM6      RM7     RM8     RM9
   <dttm>               <dbl>   <dbl>   <dbl> <chr>   <dbl> <chr>  <dbl>   <dbl>   <dbl>
 1 2019-04-30 00:00:00 190000    1700  1.10e3 Belo  1.00e4 Belo   4000  6.10e2 NA     
 2 2019-05-08 00:00:00 590000 4100000  2.40e7 1300  1.70e7 5900 150000  1.60e7 NA     
 3 2019-05-15 00:00:00 300000  920000  3.10e5 16000  8.20e6 2100 120000  6.80e4 NA     
 4 2019-05-22 00:00:00 330000 1300000  1.50e6 2000   6.50e5 4200  65000  1.40e5 NA     
 5 2019-05-29 00:00:00 510000  340000  2.50e5 66     1.60e6 3500  15000  1.30e5 NA     
 6 2019-06-04 00:00:00     NA      NA NA      NA    NA      NA        NA NA       3.90e4
 7 2019-06-05 00:00:00 130000  890000  6.40e4 30     1.20e6 1800   3300  4.00e4 NA     
 8 2019-06-12 00:00:00  91000  540000  1.00e5 44     1.90e6 1800   3700  1.70e5  2.80e7
 9 2019-06-19 00:00:00     NA  150000  1.40e4 44    NA      NA        NA NA       6.60e5
10 2019-06-20 00:00:00     NA      NA NA      NA     4.70e5 3900    200  1.40e4 NA     
# ... with 49 more rows, and 2 more variables: RM10 <dbl>, t <dbl>
…
